<svg width="103" height="1038" viewBox="0 0 103 1038" xmlns="http://www.w3.org/2000/svg" xmlns:xlink="http://www.w3.org/1999/xlink">
    <path id="Trazado" fill="#058768" fill-rule="evenodd" stroke="none" d="M 0 0 L 103 0 C 103 158.104492 17 294.312134 17 519 C 16.488464 519.00177 16.488464 519.004089 17 519.005859 C 17 743.693726 103 879.901306 103 1038.005859 L 0 1038.005859 C 0 1038.005859 0 519.005859 0 519.005859 C 0 519.005859 0 519 0 519 C 0 519 0 0 0 0 Z"/>
</svg>
