<svg width="10" height="26" viewBox="0 0 10 26" fill="none" xmlns="http://www.w3.org/2000/svg">
<path fill-rule="evenodd" clip-rule="evenodd" d="M2.90017 17.7483L3.50763 17.3844L3.36609 16.6906C3.35208 16.6219 3.34455 16.5501 3.34455 16.4754V2.06558C3.34455 1.47707 3.82163 1 4.41013 1H5.39373C5.98223 1 6.45931 1.47707 6.45931 2.06557V5.88684H5.00785C4.78693 5.88684 4.60785 6.06593 4.60785 6.28684C4.60785 6.50776 4.78693 6.68684 5.00785 6.68684H6.45931V8.23123H5.00785C4.78693 8.23123 4.60785 8.41031 4.60785 8.63123C4.60785 8.72655 4.64119 8.81408 4.69686 8.8828C4.5236 8.9267 4.39541 9.08366 4.39541 9.27057V19.0277C3.46279 19.2549 2.77051 20.0957 2.77051 21.0983C2.77051 22.2753 3.72466 23.2295 4.90166 23.2295C6.07866 23.2295 7.0328 22.2753 7.0328 21.0983C7.0328 20.021 6.2334 19.1303 5.19541 18.9872V15.4246H6.45931V16.4754C6.45931 16.5501 6.45177 16.622 6.43774 16.6908L6.29608 17.3846L6.90352 17.7486C8.04371 18.4318 8.80328 19.6769 8.80328 21.0984C8.80328 23.2532 7.05646 25 4.90164 25C2.74682 25 1 23.2532 1 21.0984C1 19.6767 1.75975 18.4315 2.90017 17.7483ZM7.45931 14.7849V13.1331C7.50935 13.0663 7.539 12.9834 7.539 12.8935C7.539 12.8036 7.50935 12.7207 7.45931 12.6539V11.0019C7.50935 10.9351 7.539 10.8522 7.539 10.7623C7.539 10.6724 7.50935 10.5894 7.45931 10.5227V8.87085C7.50935 8.80406 7.539 8.72111 7.539 8.63123C7.539 8.54135 7.50935 8.45839 7.45931 8.3916V6.52647C7.50935 6.45968 7.539 6.37672 7.539 6.28684C7.539 6.19696 7.50935 6.11401 7.45931 6.04722V2.06557C7.45931 0.924789 6.53452 0 5.39373 0H4.41013C3.26934 0 2.34455 0.924792 2.34455 2.06558V16.4754C2.34455 16.6176 2.35892 16.7564 2.38627 16.8905C0.956836 17.7468 0 19.3108 0 21.0984C0 23.8055 2.19454 26 4.90164 26C7.60874 26 9.80328 23.8055 9.80328 21.0984C9.80328 19.3111 8.84667 17.7472 7.41753 16.8908C7.44492 16.7566 7.45931 16.6177 7.45931 16.4754V15.2642C7.50935 15.1974 7.539 15.1144 7.539 15.0246C7.539 14.9347 7.50935 14.8517 7.45931 14.7849ZM6.45931 14.6246H5.19541V13.2935H6.45931V14.6246ZM6.45931 12.4935H5.19541V11.1623H6.45931V12.4935ZM6.45931 10.3623H5.19541V9.27057C5.19541 9.18081 5.16585 9.09797 5.11593 9.03123H6.45931V10.3623ZM6.0328 21.0983C6.0328 21.723 5.52637 22.2295 4.90166 22.2295C4.27694 22.2295 3.77051 21.723 3.77051 21.0983C3.77051 20.4736 4.27694 19.9672 4.90166 19.9672C5.52637 19.9672 6.0328 20.4736 6.0328 21.0983Z" fill="#CCB955"/>
</svg>
