<svg width="10" height="29" viewBox="0 0 10 29" fill="none" xmlns="http://www.w3.org/2000/svg">
<path d="M1.33849 19.101C1.33849 19.725 1.89749 20.2385 2.60599 20.2385C3.30799 20.2385 3.89299 19.725 3.89299 19.101C3.89299 18.4835 3.30799 17.97 2.60599 17.97C1.89749 17.97 1.33849 18.4835 1.33849 19.101ZM5.87549 18.0675H5.30349L2.96349 22H3.54199L5.87549 18.0675ZM1.96249 19.101C1.96249 18.7825 2.24849 18.5225 2.60599 18.5225C2.96999 18.5225 3.26899 18.7825 3.26899 19.101C3.26899 19.4195 2.96999 19.686 2.60599 19.686C2.24849 19.686 1.96249 19.4195 1.96249 19.101ZM4.94599 20.96C4.94599 21.5905 5.51149 22.0975 6.21349 22.0975C6.91549 22.0975 7.50049 21.5905 7.50049 20.96C7.50049 20.349 6.91549 19.829 6.21349 19.829C5.51149 19.829 4.94599 20.349 4.94599 20.96ZM5.56999 20.96C5.56999 20.6415 5.85599 20.3815 6.21349 20.3815C6.57749 20.3815 6.87649 20.6415 6.87649 20.96C6.87649 21.2785 6.57749 21.545 6.21349 21.545C5.85599 21.545 5.56999 21.2785 5.56999 20.96Z" fill="url(#paint0_linear_1623_8081)"/>
<path d="M4.59411 28.0085C1.40044 28.0085 0.239155 27.4962 0.196542 27.479L0.000195369 27.3937L0 12.843C0 11.2974 0.853945 10.1275 1.69074 8.98326C2.4423 7.94156 3.15951 6.95942 3.15951 5.78118V0.136559L3.44143 0.0853746C3.46702 0.0853746 3.99649 0 4.59411 0C5.19193 0 5.72978 0.0853746 5.74679 0.0853746L6.02851 0.12816V5.77278C6.02851 6.95122 6.74572 7.93316 7.50568 8.97486C8.33402 10.1105 9.19642 11.289 9.19642 12.8346V27.3853L9.00008 27.4706C8.94909 27.5046 7.78783 28.0085 4.59411 28.0085V28.0085ZM0.666227 26.9412C1.1017 27.0693 2.28859 27.3425 4.59411 27.3425C6.89962 27.3425 8.08651 27.0691 8.52199 26.9412V12.8431C8.52199 11.5195 7.76202 10.4778 6.95944 9.37632C6.18247 8.29181 5.36268 7.17313 5.36268 5.78133V0.709374C5.16633 0.683781 4.88442 0.666588 4.59411 0.666588C4.3038 0.666588 4.02204 0.692182 3.82554 0.709374V5.78133C3.82554 7.17313 3.01435 8.29181 2.22017 9.37632C1.41759 10.4778 0.657625 11.5197 0.657625 12.8431V26.9412H0.666227Z" fill="url(#paint1_linear_1623_8081)"/>
<defs>
<linearGradient id="paint0_linear_1623_8081" x1="1.00049" y1="19" x2="8.00049" y2="19" gradientUnits="userSpaceOnUse">
<stop stop-color="#CCB955"/>
<stop offset="1" stop-color="#A88D00"/>
</linearGradient>
<linearGradient id="paint1_linear_1623_8081" x1="-5.98746e-08" y1="14.0042" x2="9.19642" y2="14.0042" gradientUnits="userSpaceOnUse">
<stop stop-color="#CCB955"/>
<stop offset="1" stop-color="#A88D00"/>
</linearGradient>
</defs>
</svg>
