<svg width="1335" height="297" viewBox="0 0 1335 297" fill="none" xmlns="http://www.w3.org/2000/svg">
<mask id="mask0_1385_7808" style="mask-type:alpha" maskUnits="userSpaceOnUse" x="-6" y="0" width="1341" height="297">
<path fill-rule="evenodd" clip-rule="evenodd" d="M120.832 79.2747C143.598 84.4525 168.225 89.6895 198.9 89.6895C201.296 89.5309 203.625 89.3795 205.896 89.2318C239.419 87.0525 260.236 85.6992 293.949 74.22L326.067 94.9344L327.035 95.5716C338.551 103.156 350.14 110.768 362.222 117.941C325.976 128.527 291.654 143.558 257.22 158.637L255.65 159.324L253.846 160.114C250.378 161.632 246.908 163.15 243.434 164.662C206.867 137.075 165.41 115.777 107.113 115.777C81.5652 115.777 53.1359 122.203 -6 135.985L-4.64411 140.086C54.7846 126.236 82.4223 120.034 107.113 120.034C162.968 120.034 202.899 140.072 238.606 166.758C178.805 192.658 117.448 216.469 43.374 216.472C27.535 216.349 11.7196 215.407 -3.98263 213.651L-4.65209 217.87C11.2597 219.65 27.2861 220.604 43.3365 220.728L43.3598 220.728C119.438 220.728 182.241 196.015 242.629 169.805C256.798 180.678 270.36 192.535 284.067 204.517C285.03 205.358 285.993 206.2 286.957 207.043C291.331 210.864 295.723 214.69 300.159 218.492C198.339 274.6 106.472 292.247 34.0655 292.247C20.9671 292.269 7.87205 291.693 -5.15254 290.522L-5.69241 294.754C118.279 299.493 186.315 281.039 303.784 221.585C349.253 260.176 399.879 295.359 481.195 295.359C502.47 295.359 523.171 292.411 543.482 287.44C525.079 291.539 506.422 293.912 487.423 293.912C408.606 293.912 353.15 257.539 308.09 219.387C309.805 218.423 311.523 217.448 313.243 216.463C351.78 195.355 388.777 184.018 429.698 184.018C471.077 184.018 513.254 195.167 553.86 211.124C514.001 193.329 473.459 179.559 429.699 179.559C387.533 179.559 349.578 191.272 310.453 212.706L310.41 212.731C308.425 213.868 306.444 214.99 304.466 216.098C299.82 212.124 295.212 208.112 290.612 204.093C289.508 203.128 288.403 202.163 287.299 201.197C274.216 189.757 261.142 178.326 247.431 167.717C250.355 166.442 253.274 165.165 256.19 163.889L259.137 162.598C294.933 146.924 330.202 131.48 367.378 120.956C403.454 141.721 444.335 158.091 500.788 158.091C531.233 158.091 561.116 153.548 585.095 148.147C584.98 148.081 584.865 148.016 584.75 147.951C562.182 152.738 529.349 156.294 501.012 156.294C447.595 156.294 408.269 139.086 373.471 119.483C400.594 112.247 437.236 104.24 467.434 104.24C473.436 104.24 479.133 104.519 484.563 105.038C521.174 109.661 546.902 123.852 571.175 138.033C571.594 138.278 572.012 138.522 572.429 138.767C573.217 139.229 574.006 139.691 574.795 140.152C574.894 140.211 574.994 140.269 575.094 140.328L575.235 140.41C577.756 141.888 580.265 143.358 582.773 144.812C583.001 144.946 583.17 145.099 583.299 145.264C583.349 145.36 583.425 145.474 583.501 145.589C583.593 145.779 583.654 145.978 583.708 146.18C583.726 146.247 583.743 146.314 583.76 146.381C583.901 146.942 584.042 147.503 584.68 147.908C584.264 147.637 584.104 147.196 583.943 146.753C583.872 146.558 583.801 146.362 583.708 146.18C583.867 146.141 583.685 145.867 583.504 145.594C583.503 145.592 583.502 145.59 583.501 145.589C583.446 145.476 583.38 145.368 583.299 145.264C583.23 145.131 583.208 145.03 583.299 145.008C623.793 135.523 656.276 119.533 685.9 101.744C695.935 95.8142 705.614 89.6712 715.103 83.4588C717.556 81.8531 719.999 80.2485 722.436 78.6481L722.5 78.6058C726.598 75.9141 731.053 73.3502 735.685 70.8675C737.507 69.9815 739.337 69.1307 741.167 68.2795C745.718 66.1634 750.274 64.0446 754.741 61.3749C754.685 61.3613 754.629 61.3474 754.572 61.3333C754.172 61.5302 753.77 61.7272 753.369 61.9244C747.433 64.8396 741.424 67.7912 735.685 70.8675C732.095 72.6127 728.533 74.4946 725.046 76.786L725.04 76.7898C722.508 78.4534 719.972 80.1194 717.429 81.7841C707.133 88.5245 696.707 95.2539 685.9 101.744C656.233 119.273 623.46 134.937 583.299 145.008C583.255 145.018 583.21 145.029 583.165 145.039C583.035 144.963 582.904 144.888 582.773 144.812C582.772 144.811 582.771 144.811 582.77 144.81C581.795 144.238 579.074 142.65 577.004 141.442C576.06 140.891 575.25 140.418 574.804 140.158C574.801 140.156 574.798 140.154 574.795 140.152C574.007 139.691 573.219 139.229 572.429 138.767C571.452 138.193 570.475 137.618 569.498 137.043C545.459 122.901 521.024 108.527 484.563 105.038C476.587 104.031 468.094 103.478 458.987 103.478C426.798 103.478 396.859 108.514 368.18 116.449C355.144 108.847 342.654 100.652 330.162 92.4253L328.872 91.5759L328.871 91.5746C319.43 85.3558 309.976 79.1284 300.277 73.1506C324.162 65.6858 346.892 56.5312 368.863 47.4195C372.069 46.0901 375.257 44.7622 378.429 43.441C425.888 23.6759 469.803 5.38672 515.105 5.38672C535.695 5.38672 556.245 6.90735 576.496 10.428C556.503 4.78915 536.04 0.927246 515.106 0.927246C468.563 0.927246 423.604 19.6615 376.501 39.2892L376.486 39.2954L376.454 39.3087C373.187 40.6702 369.909 42.0361 366.619 43.4002C343.656 52.9234 320.065 62.3998 295.336 69.9374C258.415 47.7339 217.462 29.7033 160.065 29.7033C111.782 29.7033 82.0578 37.3484 -3.88323 73.0241L-1.71098 76.8695C18.8432 69.0258 36.7835 69.008 53.8095 69.008C75.8659 69.008 95.5578 73.5047 116.826 78.3613L116.826 78.3613L116.826 78.3614C118.155 78.6648 119.49 78.9696 120.832 79.2747ZM840.478 22.4364C861.623 16.437 884.937 12.8879 911.643 12.8879C986.401 12.8879 1030.81 44.2131 1077.29 76.9943C1078.67 77.9694 1080.06 78.9458 1081.44 79.9227C1112.3 101.654 1144.4 123.554 1186.99 136.428C1185.28 137.033 1183.53 137.656 1181.75 138.289C1160.92 145.714 1135.78 154.671 1111.1 154.671C1069.45 154.671 1044.8 149.721 1013.63 138.364L1011.95 137.751C981.388 126.611 950.83 115.473 911.442 115.473C879.793 115.473 853.595 121.805 830.002 130.652C854.275 122.901 881.159 117.831 911.444 117.831C949.77 117.831 979.485 128.66 1010.2 139.854L1010.2 139.855L1011.62 140.37C1042.79 151.729 1068.06 158.902 1110.86 158.902C1139.21 158.902 1167.18 148.389 1190.7 139.553C1191.85 139.12 1193 138.691 1194.12 138.268C1216.05 144.204 1240.74 147.75 1269.35 147.75L1269.36 147.75C1290.79 147.674 1312.12 145.138 1332.74 140.21L1331.35 136.116C1311.18 140.937 1290.31 143.419 1269.34 143.493C1243.62 143.493 1221.15 140.578 1201.01 135.599C1203.86 134.464 1206.73 133.274 1209.66 132.031C1220.84 127.292 1232.79 121.76 1246.28 115.519C1251.26 113.215 1256.45 110.814 1261.89 108.321C1282.07 99.0619 1305.75 88.4837 1335 76.7243L1332.81 72.8852C1303.45 84.6892 1279.69 95.3062 1259.46 104.586C1253.97 107.101 1248.76 109.515 1243.76 111.825L1243.76 111.828C1230.3 118.053 1218.46 123.531 1207.38 128.232C1202.74 130.198 1198.25 132.025 1193.83 133.71C1149.58 121.362 1116.71 99.0018 1084.7 76.4586C1083.23 75.421 1081.76 74.3828 1080.29 73.3451C1033.96 40.6647 988.273 8.42842 911.645 8.42842C886.102 8.42842 862.345 14.1556 840.478 22.4364ZM635.215 254.907C635.206 254.911 635.198 254.915 635.189 254.919C635.191 254.919 635.193 254.92 635.194 254.921C635.202 254.917 635.211 254.913 635.219 254.909C635.218 254.908 635.216 254.908 635.215 254.907ZM732.362 208.249C777.197 188.99 823.261 174.271 873.059 174.271C904.074 174.271 942.109 181.235 983.372 191.903C1005.64 197.66 1028.78 204.479 1052.21 211.831C1026.45 220.454 1002.06 230.692 978.076 240.891C976.531 241.548 974.988 242.205 973.446 242.861L973.386 242.887C966.743 245.714 960.12 248.589 953.498 251.463C905.169 272.437 856.877 293.396 800.862 296.073C851.739 294.1 905.406 277.644 975.328 246.631L975.61 246.51C977.195 245.836 978.781 245.161 980.368 244.486C1005.99 233.589 1031.89 222.736 1059.3 213.867C1076.92 219.464 1094.67 225.332 1112.28 231.245C1124.07 235.207 1135.81 239.19 1147.41 243.126C1178.45 253.662 1208.49 263.856 1235.95 272.378C1273.63 284.069 1306.74 292.713 1331.19 294.756L1331.69 290.52C1307.96 288.537 1275.39 280.08 1237.71 268.385C1210.33 259.887 1180.4 249.73 1149.38 239.203C1137.76 235.262 1126 231.27 1114.16 227.293C1098.33 221.978 1082.37 216.692 1066.47 211.602C1101.37 200.872 1138.82 193.563 1181.28 193.563C1209.55 193.563 1232.62 198.1 1255.99 203.406C1259.17 204.129 1262.37 204.867 1265.58 205.61L1265.59 205.613C1285.91 210.311 1307.05 215.197 1332.25 217.705L1332.85 213.478C1308.05 211.01 1287.3 206.216 1266.97 201.517L1266.95 201.512C1263.73 200.768 1260.53 200.026 1257.31 199.297C1233.83 193.965 1210.23 189.306 1181.28 189.306C1135.87 189.306 1096.12 197.539 1059.28 209.312C1033.99 201.303 1008.92 193.853 984.865 187.632C943.462 176.928 904.845 169.811 873.061 169.811C822.219 169.811 776.686 187.347 732.362 208.249ZM198.899 85.6358C231.135 85.6358 261.078 80.1149 289.488 71.8792C253.752 50.7365 214.518 34.1628 160.064 34.1628C118.233 34.1628 90.7891 39.9061 24.9977 66.1747C35.1739 64.9543 44.701 64.9544 53.6985 64.9544H53.8079C76.5658 64.9544 96.8722 69.5939 118.007 74.4229C119.386 74.7379 120.769 75.0537 122.155 75.3691C144.856 80.5321 168.936 85.6358 198.899 85.6358Z" fill="#CCB955"/>
</mask>
<g mask="url(#mask0_1385_7808)">
<rect width="654.819" height="362" transform="matrix(-1 0 0 1 653.57 -26)" fill="url(#paint0_linear_1385_7808)"/>
</g>
<defs>
<linearGradient id="paint0_linear_1385_7808" x1="-4.26827e-06" y1="181" x2="769.413" y2="181.565" gradientUnits="userSpaceOnUse">
<stop stop-color="#FFEA8B" stop-opacity="0.32"/>
<stop offset="1" stop-color="#A88D00"/>
</linearGradient>
</defs>
</svg>
